\relax 
\providecommand\hyper@newdestlabel[2]{}
\providecommand\HyperFirstAtBeginDocument{\AtBeginDocument}
\HyperFirstAtBeginDocument{\ifx\hyper@anchor\@undefined
\global\let\oldcontentsline\contentsline
\gdef\contentsline#1#2#3#4{\oldcontentsline{#1}{#2}{#3}}
\global\let\oldnewlabel\newlabel
\gdef\newlabel#1#2{\newlabelxx{#1}#2}
\gdef\newlabelxx#1#2#3#4#5#6{\oldnewlabel{#1}{{#2}{#3}}}
\AtEndDocument{\ifx\hyper@anchor\@undefined
\let\contentsline\oldcontentsline
\let\newlabel\oldnewlabel
\fi}
\fi}
\global\let\hyper@last\relax 
\gdef\HyperFirstAtBeginDocument#1{#1}
\providecommand\HyField@AuxAddToFields[1]{}
\providecommand\HyField@AuxAddToCoFields[2]{}
\@writefile{toc}{\@ifundefined {etoctocstyle}{\let \etoc@startlocaltoc \@gobble \let \etoc@settocdepth \@gobble \let \etoc@depthtag \@gobble \let \etoc@setlocaltop \@gobble }{}}
\providecommand \oddpage@label [2]{}
\babel@aux{english}{}
\@writefile{toc}{\contentsline {chapter}{\numberline {1}Preamble to discrete mathematics}{9}{chapter.1}\protected@file@percent }
\@writefile{lof}{\addvspace {10\p@ }}
\@writefile{lot}{\addvspace {10\p@ }}
\@writefile{loa}{\addvspace {10\p@ }}
\@writefile{toc}{\etoc@startlocaltoc{2}}
\@writefile{toc}{\contentsline {section}{\numberline {1.1}Reminder}{10}{section.1.1}\protected@file@percent }
\@writefile{lof}{\contentsline {figure}{\numberline {1.1}{\ignorespaces Three examples of functions: injective function (left), surjective function(center), and bijective function (right).\relax }}{16}{figure.1.1}\protected@file@percent }
\newlabel{fig:functions}{{1.1}{16}{Three examples of functions: injective function (left), surjective function(center), and bijective function (right).\relax }{figure.1.1}{}}
\@writefile{toc}{\contentsline {section}{\numberline {1.2}Finite and Infinite Sets}{19}{section.1.2}\protected@file@percent }
\@writefile{lof}{\contentsline {figure}{\numberline {1.2}{\ignorespaces \href  {https://en.wikipedia.org/wiki/Georg_Cantor}{Georg Cantor} defined the transfinite numbers by the end of the XIX century.\relax }}{21}{figure.caption.6}\protected@file@percent }
\@writefile{toc}{\contentsline {chapter}{\numberline {2}Languages and grammars}{23}{chapter.2}\protected@file@percent }
\@writefile{lof}{\addvspace {10\p@ }}
\@writefile{lot}{\addvspace {10\p@ }}
\@writefile{loa}{\addvspace {10\p@ }}
\@writefile{toc}{\etoc@startlocaltoc{3}}
\@writefile{toc}{\contentsline {section}{\numberline {2.1}Languages}{24}{section.2.1}\protected@file@percent }
\@writefile{toc}{\contentsline {subsection}{\numberline {2.1.1}Concept of language}{24}{subsection.2.1.1}\protected@file@percent }
\@writefile{toc}{\contentsline {subsection}{\numberline {2.1.2}Language representation}{31}{subsection.2.1.2}\protected@file@percent }
\@writefile{toc}{\contentsline {section}{\numberline {2.2}Grammatical representation systems}{32}{section.2.2}\protected@file@percent }
\@writefile{toc}{\contentsline {subsection}{\numberline {2.2.1}Definition and functioning of grammars}{32}{subsection.2.2.1}\protected@file@percent }
\@writefile{toc}{\contentsline {subsection}{\numberline {2.2.2}Classification of rules}{35}{subsection.2.2.2}\protected@file@percent }
\@writefile{toc}{\contentsline {subsection}{\numberline {2.2.3}Classification of grammars}{37}{subsection.2.2.3}\protected@file@percent }
\@writefile{toc}{\contentsline {subsection}{\numberline {2.2.4}Classification of languages}{38}{subsection.2.2.4}\protected@file@percent }
\@writefile{toc}{\contentsline {section}{\numberline {2.3}Questions about languages}{39}{section.2.3}\protected@file@percent }
\@writefile{toc}{\contentsline {section}{\numberline {2.4}Operations and closures of languages}{40}{section.2.4}\protected@file@percent }
\@writefile{toc}{\contentsline {section}{\numberline {2.5}Closures for the types of languages}{43}{section.2.5}\protected@file@percent }
\@writefile{lof}{\contentsline {figure}{\numberline {2.1}{\ignorespaces \href  {https://en.wikipedia.org/wiki/Noam_Chomsky}{Noam Chomsky} proposed the generative grammar in 1950.\relax }}{44}{figure.caption.7}\protected@file@percent }
\@writefile{toc}{\contentsline {chapter}{\numberline {3}Regular expressions}{45}{chapter.3}\protected@file@percent }
\@writefile{lof}{\addvspace {10\p@ }}
\@writefile{lot}{\addvspace {10\p@ }}
\@writefile{loa}{\addvspace {10\p@ }}
\@writefile{toc}{\etoc@startlocaltoc{4}}
\@writefile{toc}{\contentsline {section}{\numberline {3.1}Definition of the regular expressions}{46}{section.3.1}\protected@file@percent }
\@writefile{toc}{\contentsline {section}{\numberline {3.2}Some properties of regular expressions}{50}{section.3.2}\protected@file@percent }
\@writefile{lof}{\contentsline {figure}{\numberline {3.1}{\ignorespaces \href  {https://en.wikipedia.org/wiki/Stephen_Kleene}{Stephen Kleene} proposed the regular expressions model in 1951.\relax }}{52}{figure.caption.8}\protected@file@percent }
\@writefile{toc}{\contentsline {chapter}{\numberline {4}Finite automata}{53}{chapter.4}\protected@file@percent }
\@writefile{lof}{\addvspace {10\p@ }}
\@writefile{lot}{\addvspace {10\p@ }}
\@writefile{loa}{\addvspace {10\p@ }}
\@writefile{toc}{\etoc@startlocaltoc{5}}
\@writefile{toc}{\contentsline {section}{\numberline {4.1}Deterministic finite automata}{54}{section.4.1}\protected@file@percent }
\@writefile{toc}{\contentsline {section}{\numberline {4.2}Nondeterministic finite automata }{60}{section.4.2}\protected@file@percent }
\@writefile{toc}{\contentsline {section}{\numberline {4.3}Minimum deterministic finite automaton}{66}{section.4.3}\protected@file@percent }
\@writefile{toc}{\contentsline {section}{\numberline {4.4}Equivalences}{66}{section.4.4}\protected@file@percent }
\@writefile{toc}{\contentsline {chapter}{\numberline {5}Regularity conditions}{67}{chapter.5}\protected@file@percent }
\@writefile{lof}{\addvspace {10\p@ }}
\@writefile{lot}{\addvspace {10\p@ }}
\@writefile{loa}{\addvspace {10\p@ }}
\@writefile{toc}{\etoc@startlocaltoc{6}}
\@writefile{toc}{\contentsline {section}{\numberline {5.1}Myhill-Nerode}{68}{section.5.1}\protected@file@percent }
\@writefile{toc}{\contentsline {section}{\numberline {5.2}Pumping lemma}{72}{section.5.2}\protected@file@percent }
\@writefile{toc}{\contentsline {chapter}{\numberline {6}Context-free languages}{75}{chapter.6}\protected@file@percent }
\@writefile{lof}{\addvspace {10\p@ }}
\@writefile{lot}{\addvspace {10\p@ }}
\@writefile{loa}{\addvspace {10\p@ }}
\@writefile{toc}{\etoc@startlocaltoc{7}}
\@writefile{toc}{\contentsline {section}{\numberline {6.1}Derivations and Ambiguity}{76}{section.6.1}\protected@file@percent }
\@writefile{toc}{\contentsline {section}{\numberline {6.2}Recursion}{81}{section.6.2}\protected@file@percent }
\@writefile{toc}{\contentsline {section}{\numberline {6.3}CFG Simplification}{83}{section.6.3}\protected@file@percent }
\@writefile{toc}{\contentsline {section}{\numberline {6.4}Normal forms}{85}{section.6.4}\protected@file@percent }
\@writefile{toc}{\contentsline {section}{\numberline {6.5}Closure properties}{85}{section.6.5}\protected@file@percent }
\@writefile{toc}{\contentsline {section}{\numberline {6.6}Non-Deterministic Pushdown Automata}{86}{section.6.6}\protected@file@percent }
\@writefile{toc}{\contentsline {section}{\numberline {6.7}Pumping}{92}{section.6.7}\protected@file@percent }
\@writefile{toc}{\contentsline {chapter}{\numberline {7}The Turing machine}{93}{chapter.7}\protected@file@percent }
\@writefile{lof}{\addvspace {10\p@ }}
\@writefile{lot}{\addvspace {10\p@ }}
\@writefile{loa}{\addvspace {10\p@ }}
\@writefile{toc}{\etoc@startlocaltoc{8}}
\@writefile{toc}{\contentsline {section}{\numberline {7.1}Formal definition}{94}{section.7.1}\protected@file@percent }
\@writefile{toc}{\contentsline {section}{\numberline {7.2}Computability, decidability, enumerability}{105}{section.7.2}\protected@file@percent }
\@writefile{toc}{\contentsline {chapter}{\numberline {8}Recursive functions}{108}{chapter.8}\protected@file@percent }
\@writefile{lof}{\addvspace {10\p@ }}
\@writefile{lot}{\addvspace {10\p@ }}
\@writefile{loa}{\addvspace {10\p@ }}
\@writefile{toc}{\etoc@startlocaltoc{9}}
\@writefile{toc}{\contentsline {section}{\numberline {8.1}Formal definition}{109}{section.8.1}\protected@file@percent }
\@writefile{toc}{\contentsline {section}{\numberline {8.2}Enumerability, decidability, computability}{117}{section.8.2}\protected@file@percent }
\@writefile{toc}{\contentsline {chapter}{\numberline {9}The WHILE language}{119}{chapter.9}\protected@file@percent }
\@writefile{lof}{\addvspace {10\p@ }}
\@writefile{lot}{\addvspace {10\p@ }}
\@writefile{loa}{\addvspace {10\p@ }}
\@writefile{toc}{\etoc@startlocaltoc{10}}
\@writefile{toc}{\contentsline {section}{\numberline {9.1}Formal definition}{120}{section.9.1}\protected@file@percent }
\@writefile{toc}{\contentsline {section}{\numberline {9.2}Computability, decidability, enumerability}{127}{section.9.2}\protected@file@percent }
\@writefile{toc}{\contentsline {chapter}{\numberline {10}Turing completeness}{129}{chapter.10}\protected@file@percent }
\@writefile{lof}{\addvspace {10\p@ }}
\@writefile{lot}{\addvspace {10\p@ }}
\@writefile{loa}{\addvspace {10\p@ }}
\@writefile{toc}{\contentsline {section}{\numberline {10.1}Extended While language}{130}{section.10.1}\protected@file@percent }
\@writefile{toc}{\contentsline {section}{\numberline {10.2}Recursive $\Rightarrow $ While-computable}{132}{section.10.2}\protected@file@percent }
\@writefile{toc}{\contentsline {chapter}{\numberline {11}Universality}{137}{chapter.11}\protected@file@percent }
\@writefile{lof}{\addvspace {10\p@ }}
\@writefile{lot}{\addvspace {10\p@ }}
\@writefile{loa}{\addvspace {10\p@ }}
\@writefile{toc}{\etoc@startlocaltoc{11}}
\@writefile{toc}{\contentsline {section}{\numberline {11.1}Program numbering}{138}{section.11.1}\protected@file@percent }
\@writefile{toc}{\contentsline {subsection}{\numberline {11.1.1}Encoding of While programs}{142}{subsection.11.1.1}\protected@file@percent }
\@writefile{toc}{\contentsline {subsection}{\numberline {11.1.2}Decoding While programs}{145}{subsection.11.1.2}\protected@file@percent }
\@writefile{toc}{\contentsline {section}{\numberline {11.2}Universal function}{149}{section.11.2}\protected@file@percent }
\@writefile{toc}{\contentsline {section}{\numberline {11.3}Universal program}{151}{section.11.3}\protected@file@percent }
\@writefile{toc}{\contentsline {chapter}{\numberline {12}Theoretical limits of computing}{154}{chapter.12}\protected@file@percent }
\@writefile{lof}{\addvspace {10\p@ }}
\@writefile{lot}{\addvspace {10\p@ }}
\@writefile{loa}{\addvspace {10\p@ }}
\@writefile{toc}{\etoc@startlocaltoc{12}}
\@writefile{toc}{\contentsline {section}{\numberline {12.1}Halting problem}{155}{section.12.1}\protected@file@percent }
\@writefile{toc}{\contentsline {section}{\numberline {12.2}The busy beaver function}{158}{section.12.2}\protected@file@percent }
\citation{*}
\bibstyle{apacite}
\bibdata{talflecturenotes}
\bibcite{Chomsky1956Three}{\citeauthoryear {Chomsky}{Chomsky}{{\APACyear {1956}}}}
\bibcite{Chomsky1959Certain}{\citeauthoryear {Chomsky}{Chomsky}{{\APACyear {1959}}}}
\bibcite{Chomsky1958Finitestate}{\citeauthoryear {Chomsky\ \&{} Miller}{Chomsky\ \&{} Miller}{{\APACyear {1958}}}}
\bibcite{Drobot1989Formal}{\citeauthoryear {Drobot}{Drobot}{{\APACyear {1989}}}}
\bibcite{Floyd1994Language}{\citeauthoryear {Floyd\ \&{} Beigel}{Floyd\ \&{} Beigel}{{\APACyear {1994}}}}
\bibcite{Gurari1989Introduction}{\citeauthoryear {Gurari}{Gurari}{{\APACyear {1989}}}}
\@writefile{toc}{\contentsline {chapter}{References}{161}{chapter*.21}\protected@file@percent }
\bibcite{Harel1992Algorithmics}{\citeauthoryear {Harel}{Harel}{{\APACyear {1992}}}}
\bibcite{Harrison1978Introduction}{\citeauthoryear {Harrison}{Harrison}{{\APACyear {1978}}}}
\bibcite{Hopcroft1979Introduction}{\citeauthoryear {Hopcroft\ \&{} Ullman}{Hopcroft\ \&{} Ullman}{{\APACyear {1979}}}}
\bibcite{Kleene1952Introduction}{\citeauthoryear {Kleene}{Kleene}{{\APACyear {1952}}}}
\bibcite{Ramos2011Teoria}{\citeauthoryear {Ramos\ \&{} Morales}{Ramos\ \&{} Morales}{{\APACyear {2011}}}}
\bibcite{Turing1936Computable}{\citeauthoryear {Turing}{Turing}{{\APACyear {1936}}}}
